…
Here, I put the extracted contexts into a df and added a columns tagging
level and use.

low-intermediate

``` r
lowint_corr <- str_unique(LI_correct) %>% 
  as_tibble() %>% 
rename("LI_correct" = "value") %>% 
  mutate(status = "low-int_correct", .after = LI_correct)
lowint_corr
```

    ## # A tibble: 68 × 2
    ##    LI_correct                  status         
    ##    <chr>                       <chr>          
    ##  1 "an/DT onion/NN "           low-int_correct
    ##  2 "a/DT little/JJ bit/NN "    low-int_correct
    ##  3 "a/DT bad/JJ benefit/NN "   low-int_correct
    ##  4 "a/DT the/DT topic/NN "     low-int_correct
    ##  5 "a/DT lot/NN "              low-int_correct
    ##  6 "a/DT good/JJ way/NN "      low-int_correct
    ##  7 "a/DT specific/JJ time/NN " low-int_correct
    ##  8 "a/DT good/JJ plan/NN "     low-int_correct
    ##  9 "a/DT company/NN "          low-int_correct
    ## 10 "a/DT mam/NN "              low-int_correct
    ## # ℹ 58 more rows
…
lowint_null <- str_unique(LI_null) %>% 
  as_tibble() %>% 
rename("LI_null" = "value") %>% 
  mutate(status = "low-int_null", .after = LI_null)
lowint_null
```

    ## # A tibble: 84 × 2
    ##    LI_null                                     status      
    ##    <chr>                                       <chr>       
    ##  1 "because/IN hes/VBZ intelligent/JJ man/NN " low-int_null
    ##  2 "I/PRP m/VBP nothing/NN "                   low-int_null
    ##  3 "I/PRP was/VBD childhood/NN cereal/NN "     low-int_null
    ##  4 "people/NNS use/VBP taxi/NN "               low-int_null
    ##  5 "it/PRP s/VBZ good/JJ transportation/NN "   low-int_null
    ##  6 "people/NNS use/VBP car/NN "                low-int_null
    ##  7 "he/PRP was/VBD child/NN "                  low-int_null
    ##  8 "he/PRP had/VBD many/JJ problem/NN "        low-int_null
    ##  9 "mother/NN took/VBD care/NN "               low-int_null
    ## 10 "he/PRP took/VBD care/NN "                  low-int_null
    ## # ℹ 74 more rows

high-intermediate

``` r
highint_corr <- str_unique(HI_correct) %>% 
  as_tibble() %>% 
rename("HI_correct" = "value") %>% 
  mutate(status = "high-int_correct", .after = HI_correct) 
highint_corr 
```

    ## # A tibble: 235 × 2
    ##    HI_correct                    status          
    ##    <chr>                         <chr>           
    ##  1 "a/DT problem/NN "            high-int_correct
    ##  2 "a/DT lot/NN "                high-int_correct
    ##  3 "a/DT specific/JJ amount/NN " high-int_correct
    ##  4 "a/DT car/NN "                high-int_correct
    ##  5 "a/DT goal/NN "               high-int_correct
    ##  6 "a/DT full/JJ mark/NN "       high-int_correct
    ##  7 "a/DT computer/NN "           high-int_correct
    ##  8 "a/DT good/JJ company/NN "    high-int_correct
    ##  9 "a/DT good/JJ job/NN "        high-int_correct
    ## 10 "a/DT lot/NN place/NN "       high-int_correct
    ## # ℹ 225 more rows
…
